digraph arch {
    size="7,10";
    a1 [ label="a1", href="#actor_a1" ];
    a2 [ label="a2", href="#actor_a2" ];
    a3 [ label="a3", href="#actor_a3" ];
    a4 [ label="a4", href="#actor_a4" ];

    a1 -> a3 [ label="a1_to_a3", taillabel="1", headlabel="1" href="#channel_a1_to_a3" ];
    a2 -> a3 [ label="a2_to_a3", taillabel="1", headlabel="1" href="#channel_a2_to_a3" ];
    a1 -> a4 [ label="a1_to_a4", taillabel="1", headlabel="1" href="#channel_a1_to_a4" ];
    a2 -> a4 [ label="a2_to_a4", taillabel="1", headlabel="1" href="#channel_a2_to_a4" ];
    tile_a [ label="tile_a", shape="box", href="#tile_tile_a" ];
    tile_b [ label="tile_b", shape="box", href="#tile_tile_b" ];
    tile_c [ label="tile_c", shape="box", href="#tile_tile_c" ];
    tile_d [ label="tile_d", shape="box", href="#tile_tile_d" ];

    tile_a -> tile_b [ label="tile_a_to_tile_b", href="#connection_tile_a_to_tile_b" ];
    tile_a -> tile_c [ label="tile_a_to_tile_c", href="#connection_tile_a_to_tile_c" ];
    tile_a -> tile_d [ label="tile_a_to_tile_d", href="#connection_tile_a_to_tile_d" ];
    tile_b -> tile_a [ label="tile_b_to_tile_a", href="#connection_tile_b_to_tile_a" ];
    tile_b -> tile_c [ label="tile_b_to_tile_c", href="#connection_tile_b_to_tile_c" ];
    tile_b -> tile_d [ label="tile_b_to_tile_d", href="#connection_tile_b_to_tile_d" ];
    tile_c -> tile_a [ label="tile_c_to_tile_a", href="#connection_tile_c_to_tile_a" ];
    tile_c -> tile_b [ label="tile_c_to_tile_b", href="#connection_tile_c_to_tile_b" ];
    tile_c -> tile_d [ label="tile_c_to_tile_d", href="#connection_tile_c_to_tile_d" ];
    tile_d -> tile_a [ label="tile_d_to_tile_a", href="#connection_tile_d_to_tile_a" ];
    tile_d -> tile_b [ label="tile_d_to_tile_b", href="#connection_tile_d_to_tile_b" ];
    tile_d -> tile_c [ label="tile_d_to_tile_c", href="#connection_tile_d_to_tile_c" ];

    a1 -> tile_a [ style="dashed" ];
    a2 -> tile_b [ style="dashed" ];
    a3 -> tile_c [ style="dashed" ];
    a4 -> tile_d [ style="dashed" ];
}
