digraph network_bus {
    size="7,10";
    a1 [ label="a1", href="#actor_a1" ];
    a2 [ label="a2", href="#actor_a2" ];
    a3 [ label="a3", href="#actor_a3" ];
    a4 [ label="a4", href="#actor_a4" ];

    a1 -> a3 [ label="a1_to_a3", taillabel="1", headlabel="1" href="#channel_a1_to_a3" ];
    a2 -> a3 [ label="a2_to_a3", taillabel="1", headlabel="1" href="#channel_a2_to_a3" ];
    a1 -> a4 [ label="a1_to_a4", taillabel="1", headlabel="1" href="#channel_a1_to_a4" ];
    a2 -> a4 [ label="a2_to_a4", taillabel="1", headlabel="1" href="#channel_a2_to_a4" ];
}
